…
#calculated the total number of homicides and unsolved homicides
homicide = wp_df %>% 
  group_by(city_state) %>% 
  mutate(
    unsolved = ifelse(disposition == "Closed by arrest",0,1)
      ) %>% 
  summarise(
    total_homicides = n(),
    unsolved_homicides = sum(unsolved)
  ) %>% 
  arrange(desc(total_homicides))
homicide
```

    ## # A tibble: 51 x 3
    ##    city_state      total_homicides unsolved_homicides
    ##    <chr>                     <int>              <dbl>
    ##  1 Chicago,IL                 5535               4073
    ##  2 Philadelphia,PA            3037               1360
    ##  3 Houston,TX                 2942               1493
    ##  4 Baltimore,MD               2827               1825
    ##  5 Detroit,MI                 2519               1482
    ##  6 Los Angeles,CA             2257               1106
    ##  7 St. Louis,MO               1677                905
    ##  8 Dallas,TX                  1567                754
    ##  9 Memphis,TN                 1514                483
    ## 10 New Orleans,LA             1434                930
    ## # ... with 41 more rows
…
The estimated proportion of homicides in Baltimore is 0.6455607 and its confidence interval is \[ 0.6275625, 0.6631599\]

``` r
prop_df = homicide %>% 
  mutate(
    test = map2(.x = unsolved_homicides, .y = total_homicides, prop.test),
    test = map(test,broom::tidy)
         )  %>% 
  unnest() %>% 
  select(city_state, estimate, conf.low, conf.high) 
prop_df %>% arrange(desc(estimate))
```

    ## # A tibble: 51 x 4
    ##    city_state        estimate conf.low conf.high
    ##    <chr>                <dbl>    <dbl>     <dbl>
    ##  1 Chicago,IL           0.736    0.724     0.747
    ##  2 New Orleans,LA       0.649    0.623     0.673
    ##  3 Baltimore,MD         0.646    0.628     0.663
    ##  4 San Bernardino,CA    0.618    0.558     0.675
    ##  5 Buffalo,NY           0.612    0.569     0.654
    ##  6 Miami,FL             0.605    0.569     0.640
    ##  7 Stockton,CA          0.599    0.552     0.645
    ##  8 Detroit,MI           0.588    0.569     0.608
    ##  9 Phoenix,AZ           0.551    0.518     0.584
    ## 10 Denver,CO            0.542    0.485     0.598
    ## # ... with 41 more rows
…
